0000000    457f    464c    0102    0001    0000    0000    0000    0000
0000010    0002    003e    0001    0000    1040    0040    0000    0000
0000020    0040    0000    0000    0000    4e48    0000    0000    0000
0000030    0000    0000    0040    0038    000d    0040    001d    001c
0000040    0006    0000    0004    0000    0040    0000    0000    0000
0000050    0040    0040    0000    0000    0040    0040    0000    0000
0000060    02d8    0000    0000    0000    02d8    0000    0000    0000
0000070    0008    0000    0000    0000    0003    0000    0004    0000
0000080    0318    0000    0000    0000    0318    0040    0000    0000
0000090    0318    0040    0000    0000    001c    0000    0000    0000
00000a0    001c    0000    0000    0000    0001    0000    0000    0000
00000b0    0001    0000    0004    0000    0000    0000    0000    0000
00000c0    0000    0040    0000    0000    0000    0040    0000    0000
00000d0    0508    0000    0000    0000    0508    0000    0000    0000
00000e0    1000    0000    0000    0000    0001    0000    0005    0000
00000f0    1000    0000    0000    0000    1000    0040    0000    0000
0000100    1000    0040    0000    0000    0149    0000    0000    0000
0000110    0149    0000    0000    0000    1000    0000    0000    0000
0000120    0001    0000    0004    0000    2000    0000    0000    0000
0000130    2000    0040    0000    0000    2000    0040    0000    0000
0000140    00d4    0000    0000    0000    00d4    0000    0000    0000
0000150    1000    0000    0000    0000    0001    0000    0006    0000
0000160    2e10    0000    0000    0000    3e10    0040    0000    0000
0000170    3e10    0040    0000    0000    0214    0000    0000    0000
0000180    0218    0000    0000    0000    1000    0000    0000    0000
0000190    0002    0000    0006    0000    2e20    0000    0000    0000
00001a0    3e20    0040    0000    0000    3e20    0040    0000    0000
00001b0    01d0    0000    0000    0000    01d0    0000    0000    0000
00001c0    0008    0000    0000    0000    0004    0000    0004    0000
00001d0    0338    0000    0000    0000    0338    0040    0000    0000
00001e0    0338    0040    0000    0000    0040    0000    0000    0000
00001f0    0040    0000    0000    0000    0008    0000    0000    0000
0000200    0004    0000    0004    0000    0378    0000    0000    0000
0000210    0378    0040    0000    0000    0378    0040    0000    0000
0000220    0044    0000    0000    0000    0044    0000    0000    0000
0000230    0004    0000    0000    0000    e553    6474    0004    0000
0000240    0338    0000    0000    0000    0338    0040    0000    0000
0000250    0338    0040    0000    0000    0040    0000    0000    0000
0000260    0040    0000    0000    0000    0008    0000    0000    0000
0000270    e550    6474    0004    0000    201c    0000    0000    0000
0000280    201c    0040    0000    0000    201c    0040    0000    0000
0000290    002c    0000    0000    0000    002c    0000    0000    0000
00002a0    0004    0000    0000    0000    e551    6474    0006    0000
00002b0    0000    0000    0000    0000    0000    0000    0000    0000
*
00002d0    0000    0000    0000    0000    0010    0000    0000    0000
00002e0    e552    6474    0004    0000    2e10    0000    0000    0000
00002f0    3e10    0040    0000    0000    3e10    0040    0000    0000
0000300    01f0    0000    0000    0000    01f0    0000    0000    0000
0000310    0001    0000    0000    0000    6c2f    6269    3436    6c2f
0000320    2d64    696c    756e    2d78    3878    2d36    3436    732e
0000330    2e6f    0032    0000    0000    0004    0000    0030    0000
0000340    0005    0000    4e47    0055    8002    c000    0004    0000
0000350    0001    0000    0000    0000    0001    c001    0004    0000
0000360    0001    0000    0000    0000    0002    c001    0004    0000
0000370    0000    0000    0000    0000    0004    0000    0014    0000
0000380    0003    0000    4e47    0055    dab9    150f    9515    0b55
0000390    dccb    ccaf    1f95    0271    53fe    2804    0004    0000
00003a0    0010    0000    0001    0000    4e47    0055    0000    0000
00003b0    0003    0000    0002    0000    0000    0000    0000    0000
00003c0    0001    0000    0001    0000    0001    0000    0000    0000
00003d0    0000    0000    0000    0000    0000    0000    0000    0000
*
00003f0    0000    0000    0000    0000    0001    0000    0012    0000
0000400    0000    0000    0000    0000    0000    0000    0000    0000
0000410    0013    0000    0012    0000    0000    0000    0000    0000
0000420    0000    0000    0000    0000    0039    0000    0020    0000
0000430    0000    0000    0000    0000    0000    0000    0000    0000
0000440    5f00    6c5f    6269    5f63    7473    7261    5f74    616d
0000450    6e69    7000    7475    0073    696c    6362    732e    2e6f
0000460    0036    4c47    4249    5f43    2e32    2e32    0035    4c47
0000470    4249    5f43    2e32    3433    5f00    675f    6f6d    5f6e
0000480    7473    7261    5f74    005f    0000    0002    0003    0001
0000490    0001    0002    0018    0000    0010    0000    0000    0000
00004a0    1a75    0969    0000    0003    0022    0000    0010    0000
00004b0    91b4    0696    0000    0002    002e    0000    0000    0000
00004c0    3ff0    0040    0000    0000    0006    0000    0001    0000
00004d0    0000    0000    0000    0000    3ff8    0040    0000    0000
00004e0    0006    0000    0003    0000    0000    0000    0000    0000
00004f0    4018    0040    0000    0000    0007    0000    0002    0000
0000500    0000    0000    0000    0000    0000    0000    0000    0000
*
0001000    0ff3    fa1e    8348    08ec    8b48    e905    002f    4800
0001010    c085    0274    d0ff    8348    08c4    00c3    0000    0000
0001020    35ff    2fe2    0000    25ff    2fe4    0000    1f0f    0040
0001030    25ff    2fe2    0000    0068    0000    e900    ffe0    ffff
0001040    0ff3    fa1e    ed31    8949    5ed1    8948    48e2    e483
0001050    50f0    4554    c031    c931    c748    26c7    4011    ff00
0001060    8b15    002f    f400    2e66    1f0f    0084    0000    0000
0001070    0ff3    fa1e    66c3    0f2e    841f    0000    0000    9000
0001080    28b8    4040    4800    283d    4040    7400    b813    0000
0001090    0000    8548    74c0    bf09    4028    0040    e0ff    9066
00010a0    66c3    2e66    1f0f    0084    0000    0000    1f0f    0040
00010b0    28be    4040    4800    ee81    4028    0040    8948    48f0
00010c0    eec1    483f    f8c1    4803    c601    d148    74fe    b811
00010d0    0000    0000    8548    74c0    bf07    4028    0040    e0ff
00010e0    66c3    2e66    1f0f    0084    0000    0000    1f0f    0040
00010f0    0ff3    fa1e    3d80    2f29    0000    7500    5513    8948
0001100    e8e5    ff7a    ffff    05c6    2f17    0000    5d01    90c3
0001110    66c3    2e66    1f0f    0084    0000    0000    1f0f    0040
0001120    0ff3    fa1e    8aeb    4855    e589    10bf    4020    e800
0001130    fefc    ffff    00b8    0000    5d00    00c3    0ff3    fa1e
0001140    8348    08ec    8348    08c4    00c3    0000    0000    0000
0001150    0000    0000    0000    0000    0000    0000    0000    0000
*
0002000    0001    0002    0000    0000    0000    0000    0000    0000
0002010    6f48    616c    6d20    6e75    6f64    0021    1b01    3b03
0002020    0028    0000    0004    0000    f004    ffff    006c    0000
0002030    f024    ffff    0044    0000    f054    ffff    0058    0000
0002040    f10a    ffff    0094    0000    0014    0000    0000    0000
0002050    7a01    0052    7801    0110    0c1b    0807    0190    0000
0002060    0010    0000    001c    0000    efd8    ffff    0026    0000
0002070    4400    1007    0010    0000    0030    0000    eff4    ffff
0002080    0005    0000    0000    0000    0024    0000    0044    0000
0002090    ef90    ffff    0020    0000    0e00    4610    180e    0f4a
00020a0    770b    8008    3f00    3b1a    332a    2224    0000    0000
00020b0    001c    0000    006c    0000    f06e    ffff    0015    0000
00020c0    4100    100e    0286    0d43    5006    070c    0008    0000
00020d0    0000    0000    0000    0000    0000    0000    0000    0000
*
0002e10    1120    0040    0000    0000    10f0    0040    0000    0000
0002e20    0001    0000    0000    0000    0018    0000    0000    0000
0002e30    000c    0000    0000    0000    1000    0040    0000    0000
0002e40    000d    0000    0000    0000    113c    0040    0000    0000
0002e50    0019    0000    0000    0000    3e10    0040    0000    0000
0002e60    001b    0000    0000    0000    0008    0000    0000    0000
0002e70    001a    0000    0000    0000    3e18    0040    0000    0000
0002e80    001c    0000    0000    0000    0008    0000    0000    0000
0002e90    fef5    6fff    0000    0000    03c0    0040    0000    0000
0002ea0    0005    0000    0000    0000    0440    0040    0000    0000
0002eb0    0006    0000    0000    0000    03e0    0040    0000    0000
0002ec0    000a    0000    0000    0000    0048    0000    0000    0000
0002ed0    000b    0000    0000    0000    0018    0000    0000    0000
0002ee0    0015    0000    0000    0000    0000    0000    0000    0000
0002ef0    0003    0000    0000    0000    4000    0040    0000    0000
0002f00    0002    0000    0000    0000    0018    0000    0000    0000
0002f10    0014    0000    0000    0000    0007    0000    0000    0000
0002f20    0017    0000    0000    0000    04f0    0040    0000    0000
0002f30    0007    0000    0000    0000    04c0    0040    0000    0000
0002f40    0008    0000    0000    0000    0030    0000    0000    0000
0002f50    0009    0000    0000    0000    0018    0000    0000    0000
0002f60    fffe    6fff    0000    0000    0490    0040    0000    0000
0002f70    ffff    6fff    0000    0000    0001    0000    0000    0000
0002f80    fff0    6fff    0000    0000    0488    0040    0000    0000
0002f90    0000    0000    0000    0000    0000    0000    0000    0000
*
0003000    3e20    0040    0000    0000    0000    0000    0000    0000
0003010    0000    0000    0000    0000    1036    0040    0000    0000
0003020    0000    0000    4347    3a43    2820    4e47    2955    3120
0003030    2e31    2e33    2031    3032    3232    3430    3132    2820
0003040    6552    2064    6148    2074    3131    332e    312e    322d
0003050    0029    0000    000b    0000    0010    0000    0100    0000
0003060    4147    0124    7033    3031    3636    0000    1066    0040
0003070    0000    0000    1066    0040    0000    0000    0020    0000
0003080    0000    0000    0100    0000    4147    0524    7572    6e6e
0003090    6e69    2067    6367    2063    3131    332e    312e    3220
00030a0    3230    3032    3234    0031    0020    0000    0000    0000
00030b0    0100    0000    4147    0524    6e61    6f6e    6962    206e
00030c0    6367    2063    3131    332e    312e    3220    3230    3032
00030d0    3234    0031    0019    0000    0000    0000    0100    0000
00030e0    4147    0524    6c70    6775    6e69    6e20    6d61    3a65
00030f0    6120    6e6e    626f    6e69    0000    0000    000b    0000
0003100    0000    0000    0100    0000    4147    472a    574f    6a00
0003110    0205    0000    0006    0000    0000    0000    0100    0000
0003120    4147    022a    0003    0000    000f    0000    0000    0000
0003130    0100    0000    4147    732b    6174    6b63    635f    616c
0003140    6873    0000    0013    0000    0000    0000    0100    0000
0003150    4147    632a    5f66    7270    746f    6365    6974    6e6f
0003160    0800    0000    000d    0000    0000    0000    0100    0000
0003170    4147    462a    524f    4954    5946    ff00    0000    0000
0003180    0016    0000    0000    0000    0100    0000    4147    472b
0003190    494c    4342    5858    415f    5353    5245    4954    4e4f
00031a0    0053    0000    0006    0000    0000    0000    0100    0000
00031b0    4147    072a    0003    0000    0005    0000    0000    0000
00031c0    0100    0000    4147    0821    0000    0000    0016    0000
00031d0    0000    0000    0100    0000    4147    6f2b    696d    5f74
00031e0    7266    6d61    5f65    6f70    6e69    6574    0072    0000
00031f0    0006    0000    0000    0000    0100    0000    4147    062a
0003200    0012    0000    0011    0000    0000    0000    0100    0000
0003210    4147    7321    6174    6b63    725f    6165    696c    6e67
0003220    0000    0000    000b    0000    0010    0000    0100    0000
0003230    4147    0124    7033    3031    3636    0000    1040    0040
0003240    0000    0000    1040    0040    0000    0000    0020    0000
0003250    0000    0000    0100    0000    4147    0524    7572    6e6e
0003260    6e69    2067    6367    2063    3131    332e    312e    3220
0003270    3230    3032    3234    0031    0020    0000    0000    0000
0003280    0100    0000    4147    0524    6e61    6f6e    6962    206e
0003290    6367    2063    3131    332e    312e    3220    3230    3032
00032a0    3234    0031    0019    0000    0000    0000    0100    0000
00032b0    4147    0524    6c70    6775    6e69    6e20    6d61    3a65
00032c0    6120    6e6e    626f    6e69    0000    0000    000b    0000
00032d0    0000    0000    0100    0000    4147    472a    574f    6a00
00032e0    0205    0000    0006    0000    0000    0000    0100    0000
00032f0    4147    022a    0003    0000    000f    0000    0000    0000
0003300    0100    0000    4147    732b    6174    6b63    635f    616c
0003310    6873    0000    0013    0000    0000    0000    0100    0000
0003320    4147    632a    5f66    7270    746f    6365    6974    6e6f
0003330    0800    0000    000d    0000    0000    0000    0100    0000
0003340    4147    462a    524f    4954    5946    ff00    0000    0000
0003350    0016    0000    0000    0000    0100    0000    4147    472b
0003360    494c    4342    5858    415f    5353    5245    4954    4e4f
0003370    0053    0000    0006    0000    0000    0000    0100    0000
0003380    4147    072a    0003    0000    0005    0000    0000    0000
0003390    0100    0000    4147    0821    0000    0000    0016    0000
00033a0    0000    0000    0100    0000    4147    6f2b    696d    5f74
00033b0    7266    6d61    5f65    6f70    6e69    6574    0072    0000
00033c0    0006    0000    0000    0000    0100    0000    4147    062a
00033d0    0012    0000    0011    0000    0000    0000    0100    0000
00033e0    4147    7321    6174    6b63    725f    6165    696c    6e67
00033f0    0000    0000    000b    0000    0010    0000    0100    0000
0003400    4147    0124    7033    3031    3636    0000    1040    0040
0003410    0000    0000    1040    0040    0000    0000    0020    0000
0003420    0000    0000    0100    0000    4147    0524    7572    6e6e
0003430    6e69    2067    6367    2063    3131    332e    312e    3220
0003440    3230    3032    3234    0031    0020    0000    0000    0000
0003450    0100    0000    4147    0524    6e61    6f6e    6962    206e
0003460    6367    2063    3131    332e    312e    3220    3230    3032
0003470    3234    0031    0019    0000    0000    0000    0100    0000
0003480    4147    0524    6c70    6775    6e69    6e20    6d61    3a65
0003490    6120    6e6e    626f    6e69    0000    0000    000b    0000
00034a0    0000    0000    0100    0000    4147    472a    574f    6a00
00034b0    0205    0000    0006    0000    0000    0000    0100    0000
00034c0    4147    022a    0003    0000    000f    0000    0000    0000
00034d0    0100    0000    4147    732b    6174    6b63    635f    616c
00034e0    6873    0000    0013    0000    0000    0000    0100    0000
00034f0    4147    632a    5f66    7270    746f    6365    6974    6e6f
0003500    0800    0000    000d    0000    0000    0000    0100    0000
0003510    4147    462a    524f    4954    5946    ff00    0000    0000
0003520    0016    0000    0000    0000    0100    0000    4147    472b
0003530    494c    4342    5858    415f    5353    5245    4954    4e4f
0003540    0053    0000    0006    0000    0000    0000    0100    0000
0003550    4147    072a    0003    0000    0005    0000    0000    0000
0003560    0100    0000    4147    0821    0000    0000    0016    0000
0003570    0000    0000    0100    0000    4147    6f2b    696d    5f74
0003580    7266    6d61    5f65    6f70    6e69    6574    0072    0000
0003590    0006    0000    0000    0000    0100    0000    4147    062a
00035a0    0012    0000    0011    0000    0000    0000    0100    0000
00035b0    4147    7321    6174    6b63    725f    6165    696c    6e67
00035c0    0000    0000    000b    0000    0010    0000    0100    0000
00035d0    4147    0124    7033    3031    3636    0000    1040    0040
00035e0    0000    0000    1040    0040    0000    0000    0020    0000
00035f0    0000    0000    0100    0000    4147    0524    7572    6e6e
0003600    6e69    2067    6367    2063    3131    332e    312e    3220
0003610    3230    3032    3234    0031    0020    0000    0000    0000
0003620    0100    0000    4147    0524    6e61    6f6e    6962    206e
0003630    6367    2063    3131    332e    312e    3220    3230    3032
0003640    3234    0031    0019    0000    0000    0000    0100    0000
0003650    4147    0524    6c70    6775    6e69    6e20    6d61    3a65
0003660    6120    6e6e    626f    6e69    0000    0000    000b    0000
0003670    0000    0000    0100    0000    4147    472a    574f    6a00
0003680    0205    0000    0006    0000    0000    0000    0100    0000
0003690    4147    022a    0003    0000    000f    0000    0000    0000
00036a0    0100    0000    4147    732b    6174    6b63    635f    616c
00036b0    6873    0000    0013    0000    0000    0000    0100    0000
00036c0    4147    632a    5f66    7270    746f    6365    6974    6e6f
00036d0    0800    0000    000d    0000    0000    0000    0100    0000
00036e0    4147    462a    524f    4954    5946    ff00    0000    0000
00036f0    0016    0000    0000    0000    0100    0000    4147    472b
0003700    494c    4342    5858    415f    5353    5245    4954    4e4f
0003710    0053    0000    0006    0000    0000    0000    0100    0000
0003720    4147    072a    0003    0000    0005    0000    0000    0000
0003730    0100    0000    4147    0821    0000    0000    0016    0000
0003740    0000    0000    0100    0000    4147    6f2b    696d    5f74
0003750    7266    6d61    5f65    6f70    6e69    6574    0072    0000
0003760    0006    0000    0000    0000    0100    0000    4147    062a
0003770    0012    0000    0011    0000    0000    0000    0100    0000
0003780    4147    7321    6174    6b63    725f    6165    696c    6e67
0003790    0000    0000    000b    0000    0010    0000    0100    0000
00037a0    4147    0124    7033    3031    3636    0000    1040    0040
00037b0    0000    0000    1040    0040    0000    0000    0020    0000
00037c0    0000    0000    0100    0000    4147    0524    7572    6e6e
00037d0    6e69    2067    6367    2063    3131    332e    312e    3220
00037e0    3230    3032    3234    0031    0020    0000    0000    0000
00037f0    0100    0000    4147    0524    6e61    6f6e    6962    206e
0003800    6367    2063    3131    332e    312e    3220    3230    3032
0003810    3234    0031    0019    0000    0000    0000    0100    0000
0003820    4147    0524    6c70    6775    6e69    6e20    6d61    3a65
0003830    6120    6e6e    626f    6e69    0000    0000    000b    0000
0003840    0000    0000    0100    0000    4147    472a    574f    6a00
0003850    0205    0000    0006    0000    0000    0000    0100    0000
0003860    4147    022a    0003    0000    000f    0000    0000    0000
0003870    0100    0000    4147    732b    6174    6b63    635f    616c
0003880    6873    0000    0013    0000    0000    0000    0100    0000
0003890    4147    632a    5f66    7270    746f    6365    6974    6e6f
00038a0    0800    0000    000d    0000    0000    0000    0100    0000
00038b0    4147    462a    524f    4954    5946    ff00    0000    0000
00038c0    0016    0000    0000    0000    0100    0000    4147    472b
00038d0    494c    4342    5858    415f    5353    5245    4954    4e4f
00038e0    0053    0000    0006    0000    0000    0000    0100    0000
00038f0    4147    072a    0003    0000    0005    0000    0000    0000
0003900    0100    0000    4147    0821    0000    0000    0016    0000
0003910    0000    0000    0100    0000    4147    6f2b    696d    5f74
0003920    7266    6d61    5f65    6f70    6e69    6574    0072    0000
0003930    0006    0000    0000    0000    0100    0000    4147    062a
0003940    0012    0000    0011    0000    0000    0000    0100    0000
0003950    4147    7321    6174    6b63    725f    6165    696c    6e67
0003960    0000    0000    000b    0000    0010    0000    0100    0000
0003970    4147    0124    7033    3031    3636    0000    1066    0040
0003980    0000    0000    1066    0040    0000    0000    0020    0000
0003990    0000    0000    0100    0000    4147    0524    7572    6e6e
00039a0    6e69    2067    6367    2063    3131    332e    312e    3220
00039b0    3230    3032    3234    0031    0020    0000    0000    0000
00039c0    0100    0000    4147    0524    6e61    6f6e    6962    206e
00039d0    6367    2063    3131    332e    312e    3220    3230    3032
00039e0    3234    0031    0019    0000    0000    0000    0100    0000
00039f0    4147    0524    6c70    6775    6e69    6e20    6d61    3a65
0003a00    6120    6e6e    626f    6e69    0000    0000    000b    0000
0003a10    0000    0000    0100    0000    4147    472a    574f    6a00
0003a20    0205    0000    0006    0000    0000    0000    0100    0000
0003a30    4147    022a    0003    0000    000f    0000    0000    0000
0003a40    0100    0000    4147    732b    6174    6b63    635f    616c
0003a50    6873    0000    0013    0000    0000    0000    0100    0000
0003a60    4147    632a    5f66    7270    746f    6365    6974    6e6f
0003a70    0800    0000    000d    0000    0000    0000    0100    0000
0003a80    4147    462a    524f    4954    5946    ff00    0000    0000
0003a90    0016    0000    0000    0000    0100    0000    4147    472b
0003aa0    494c    4342    5858    415f    5353    5245    4954    4e4f
0003ab0    0053    0000    0006    0000    0000    0000    0100    0000
0003ac0    4147    072a    0003    0000    0005    0000    0000    0000
0003ad0    0100    0000    4147    0821    0000    0000    0016    0000
0003ae0    0000    0000    0100    0000    4147    6f2b    696d    5f74
0003af0    7266    6d61    5f65    6f70    6e69    6574    0072    0000
0003b00    0006    0000    0000    0000    0100    0000    4147    062a
0003b10    0012    0000    0011    0000    0000    0000    0100    0000
0003b20    4147    7321    6174    6b63    725f    6165    696c    6e67
0003b30    0000    0000    000b    0000    0010    0000    0100    0000
0003b40    4147    0124    7033    3031    3636    0000    1040    0040
0003b50    0000    0000    1040    0040    0000    0000    0020    0000
0003b60    0000    0000    0100    0000    4147    0524    7572    6e6e
0003b70    6e69    2067    6367    2063    3131    332e    312e    3220
0003b80    3230    3032    3234    0031    0020    0000    0000    0000
0003b90    0100    0000    4147    0524    6e61    6f6e    6962    206e
0003ba0    6367    2063    3131    332e    312e    3220    3230    3032
0003bb0    3234    0031    0019    0000    0000    0000    0100    0000
0003bc0    4147    0524    6c70    6775    6e69    6e20    6d61    3a65
0003bd0    6120    6e6e    626f    6e69    0000    0000    000b    0000
0003be0    0000    0000    0100    0000    4147    472a    574f    6a00
0003bf0    0205    0000    0006    0000    0000    0000    0100    0000
0003c00    4147    022a    0003    0000    000f    0000    0000    0000
0003c10    0100    0000    4147    732b    6174    6b63    635f    616c
0003c20    6873    0000    0013    0000    0000    0000    0100    0000
0003c30    4147    632a    5f66    7270    746f    6365    6974    6e6f
0003c40    0800    0000    000d    0000    0000    0000    0100    0000
0003c50    4147    462a    524f    4954    5946    ff00    0000    0000
0003c60    0016    0000    0000    0000    0100    0000    4147    472b
0003c70    494c    4342    5858    415f    5353    5245    4954    4e4f
0003c80    0053    0000    0006    0000    0000    0000    0100    0000
0003c90    4147    072a    0003    0000    0005    0000    0000    0000
0003ca0    0100    0000    4147    0821    0000    0000    0016    0000
0003cb0    0000    0000    0100    0000    4147    6f2b    696d    5f74
0003cc0    7266    6d61    5f65    6f70    6e69    6574    0072    0000
0003cd0    0006    0000    0000    0000    0100    0000    4147    062a
0003ce0    0012    0000    0011    0000    0000    0000    0100    0000
0003cf0    4147    7321    6174    6b63    725f    6165    696c    6e67
0003d00    0000    0000    000b    0000    0010    0000    0100    0000
0003d10    4147    0124    7033    3031    3636    0000    1040    0040
0003d20    0000    0000    1040    0040    0000    0000    0020    0000
0003d30    0000    0000    0100    0000    4147    0524    7572    6e6e
0003d40    6e69    2067    6367    2063    3131    332e    312e    3220
0003d50    3230    3032    3234    0031    0020    0000    0000    0000
0003d60    0100    0000    4147    0524    6e61    6f6e    6962    206e
0003d70    6367    2063    3131    332e    312e    3220    3230    3032
0003d80    3234    0031    0019    0000    0000    0000    0100    0000
0003d90    4147    0524    6c70    6775    6e69    6e20    6d61    3a65
0003da0    6120    6e6e    626f    6e69    0000    0000    000b    0000
0003db0    0000    0000    0100    0000    4147    472a    574f    6a00
0003dc0    0205    0000    0006    0000    0000    0000    0100    0000
0003dd0    4147    022a    0003    0000    000f    0000    0000    0000
0003de0    0100    0000    4147    732b    6174    6b63    635f    616c
0003df0    6873    0000    0013    0000    0000    0000    0100    0000
0003e00    4147    632a    5f66    7270    746f    6365    6974    6e6f
0003e10    0800    0000    000d    0000    0000    0000    0100    0000
0003e20    4147    462a    524f    4954    5946    ff00    0000    0000
0003e30    0016    0000    0000    0000    0100    0000    4147    472b
0003e40    494c    4342    5858    415f    5353    5245    4954    4e4f
0003e50    0053    0000    0006    0000    0000    0000    0100    0000
0003e60    4147    072a    0003    0000    0005    0000    0000    0000
0003e70    0100    0000    4147    0821    0000    0000    0016    0000
0003e80    0000    0000    0100    0000    4147    6f2b    696d    5f74
0003e90    7266    6d61    5f65    6f70    6e69    6574    0072    0000
0003ea0    0006    0000    0000    0000    0100    0000    4147    062a
0003eb0    0012    0000    0011    0000    0000    0000    0100    0000
0003ec0    4147    7321    6174    6b63    725f    6165    696c    6e67
0003ed0    0000    0000    000b    0000    0010    0000    0100    0000
0003ee0    4147    0124    7033    3031    3636    0000    1040    0040
0003ef0    0000    0000    1040    0040    0000    0000    0020    0000
0003f00    0000    0000    0100    0000    4147    0524    7572    6e6e
0003f10    6e69    2067    6367    2063    3131    332e    312e    3220
0003f20    3230    3032    3234    0031    0020    0000    0000    0000
0003f30    0100    0000    4147    0524    6e61    6f6e    6962    206e
0003f40    6367    2063    3131    332e    312e    3220    3230    3032
0003f50    3234    0031    0019    0000    0000    0000    0100    0000
0003f60    4147    0524    6c70    6775    6e69    6e20    6d61    3a65
0003f70    6120    6e6e    626f    6e69    0000    0000    000b    0000
0003f80    0000    0000    0100    0000    4147    472a    574f    6a00
0003f90    0205    0000    0006    0000    0000    0000    0100    0000
0003fa0    4147    022a    0003    0000    000f    0000    0000    0000
0003fb0    0100    0000    4147    732b    6174    6b63    635f    616c
0003fc0    6873    0000    0013    0000    0000    0000    0100    0000
0003fd0    4147    632a    5f66    7270    746f    6365    6974    6e6f
0003fe0    0800    0000    000d    0000    0000    0000    0100    0000
0003ff0    4147    462a    524f    4954    5946    ff00    0000    0000
0004000    0016    0000    0000    0000    0100    0000    4147    472b
0004010    494c    4342    5858    415f    5353    5245    4954    4e4f
0004020    0053    0000    0006    0000    0000    0000    0100    0000
0004030    4147    072a    0003    0000    0005    0000    0000    0000
0004040    0100    0000    4147    0821    0000    0000    0016    0000
0004050    0000    0000    0100    0000    4147    6f2b    696d    5f74
0004060    7266    6d61    5f65    6f70    6e69    6574    0072    0000
0004070    0006    0000    0000    0000    0100    0000    4147    062a
0004080    0012    0000    0011    0000    0000    0000    0100    0000
0004090    4147    7321    6174    6b63    725f    6165    696c    6e67
00040a0    0000    0000    000b    0000    0010    0000    0100    0000
00040b0    4147    0124    7033    3031    3636    0000    1040    0040
00040c0    0000    0000    1040    0040    0000    0000    0020    0000
00040d0    0000    0000    0100    0000    4147    0524    7572    6e6e
00040e0    6e69    2067    6367    2063    3131    332e    312e    3220
00040f0    3230    3032    3234    0031    0020    0000    0000    0000
0004100    0100    0000    4147    0524    6e61    6f6e    6962    206e
0004110    6367    2063    3131    332e    312e    3220    3230    3032
0004120    3234    0031    0019    0000    0000    0000    0100    0000
0004130    4147    0524    6c70    6775    6e69    6e20    6d61    3a65
0004140    6120    6e6e    626f    6e69    0000    0000    000b    0000
0004150    0000    0000    0100    0000    4147    472a    574f    6a00
0004160    0205    0000    0006    0000    0000    0000    0100    0000
0004170    4147    022a    0003    0000    000f    0000    0000    0000
0004180    0100    0000    4147    732b    6174    6b63    635f    616c
0004190    6873    0000    0013    0000    0000    0000    0100    0000
00041a0    4147    632a    5f66    7270    746f    6365    6974    6e6f
00041b0    0800    0000    000d    0000    0000    0000    0100    0000
00041c0    4147    462a    524f    4954    5946    ff00    0000    0000
00041d0    0016    0000    0000    0000    0100    0000    4147    472b
00041e0    494c    4342    5858    415f    5353    5245    4954    4e4f
00041f0    0053    0000    0006    0000    0000    0000    0100    0000
0004200    4147    072a    0003    0000    0005    0000    0000    0000
0004210    0100    0000    4147    0821    0000    0000    0016    0000
0004220    0000    0000    0100    0000    4147    6f2b    696d    5f74
0004230    7266    6d61    5f65    6f70    6e69    6574    0072    0000
0004240    0006    0000    0000    0000    0100    0000    4147    062a
0004250    0012    0000    0011    0000    0000    0000    0100    0000
0004260    4147    7321    6174    6b63    725f    6165    696c    6e67
0004270    0000    0000    000b    0000    0010    0000    0100    0000
0004280    4147    0124    7033    3031    3636    0000    1070    0040
0004290    0000    0000    1066    0040    0000    0000    0020    0000
00042a0    0000    0000    0100    0000    4147    0524    7572    6e6e
00042b0    6e69    2067    6367    2063    3131    332e    312e    3220
00042c0    3230    3032    3234    0031    0020    0000    0000    0000
00042d0    0100    0000    4147    0524    6e61    6f6e    6962    206e
00042e0    6367    2063    3131    332e    312e    3220    3230    3032
00042f0    3234    0031    0019    0000    0000    0000    0100    0000
0004300    4147    0524    6c70    6775    6e69    6e20    6d61    3a65
0004310    6120    6e6e    626f    6e69    0000    0000    000b    0000
0004320    0000    0000    0100    0000    4147    472a    574f    6a00
0004330    0205    0000    0006    0000    0000    0000    0100    0000
0004340    4147    022a    0003    0000    000f    0000    0000    0000
0004350    0100    0000    4147    732b    6174    6b63    635f    616c
0004360    6873    0000    0013    0000    0000    0000    0100    0000
0004370    4147    632a    5f66    7270    746f    6365    6974    6e6f
0004380    0800    0000    000d    0000    0000    0000    0100    0000
0004390    4147    462a    524f    4954    5946    ff00    0000    0000
00043a0    0016    0000    0000    0000    0100    0000    4147    472b
00043b0    494c    4342    5858    415f    5353    5245    4954    4e4f
00043c0    0053    0000    0006    0000    0000    0000    0100    0000
00043d0    4147    072a    0003    0000    0005    0000    0000    0000
00043e0    0100    0000    4147    0821    0000    0000    0016    0000
00043f0    0000    0000    0100    0000    4147    6f2b    696d    5f74
0004400    7266    6d61    5f65    6f70    6e69    6574    0072    0000
0004410    0006    0000    0000    0000    0100    0000    4147    062a
0004420    0012    0000    0011    0000    0000    0000    0100    0000
0004430    4147    7321    6174    6b63    725f    6165    696c    6e67
0004440    0000    0000    000d    0000    0010    0000    0101    0000
0004450    4147    462a    524f    4954    5946    ff00    0000    0000
0004460    1070    0040    0000    0000    1075    0040    0000    0000
0004470    0016    0000    0010    0000    0101    0000    4147    472b
0004480    494c    4342    5858    415f    5353    5245    4954    4e4f
0004490    0053    0000    1070    0040    0000    0000    1075    0040
00044a0    0000    0000    000b    0000    0010    0000    0100    0000
00044b0    4147    0124    7033    3031    3636    0000    1040    0040
00044c0    0000    0000    1040    0040    0000    0000    0020    0000
00044d0    0000    0000    0100    0000    4147    0524    7572    6e6e
00044e0    6e69    2067    6367    2063    3131    332e    312e    3220
00044f0    3230    3032    3234    0031    0020    0000    0000    0000
0004500    0100    0000    4147    0524    6e61    6f6e    6962    206e
0004510    6367    2063    3131    332e    312e    3220    3230    3032
0004520    3234    0031    0019    0000    0000    0000    0100    0000
0004530    4147    0524    6c70    6775    6e69    6e20    6d61    3a65
0004540    6120    6e6e    626f    6e69    0000    0000    000b    0000
0004550    0000    0000    0100    0000    4147    472a    574f    6a00
0004560    0205    0000    0006    0000    0000    0000    0100    0000
0004570    4147    022a    0003    0000    000f    0000    0000    0000
0004580    0100    0000    4147    732b    6174    6b63    635f    616c
0004590    6873    0000    0013    0000    0000    0000    0100    0000
00045a0    4147    632a    5f66    7270    746f    6365    6974    6e6f
00045b0    0800    0000    000d    0000    0000    0000    0100    0000
00045c0    4147    462a    524f    4954    5946    ff00    0000    0000
00045d0    0016    0000    0000    0000    0100    0000    4147    472b
00045e0    494c    4342    5858    415f    5353    5245    4954    4e4f
00045f0    0053    0000    0006    0000    0000    0000    0100    0000
0004600    4147    072a    0003    0000    0005    0000    0000    0000
0004610    0100    0000    4147    0821    0000    0000    0016    0000
0004620    0000    0000    0100    0000    4147    6f2b    696d    5f74
0004630    7266    6d61    5f65    6f70    6e69    6574    0072    0000
0004640    0006    0000    0000    0000    0100    0000    4147    062a
0004650    0012    0000    0011    0000    0000    0000    0100    0000
0004660    4147    7321    6174    6b63    725f    6165    696c    6e67
0004670    0000    0000    000b    0000    0010    0000    0100    0000
0004680    4147    0124    7033    3031    3636    0000    1040    0040
0004690    0000    0000    1040    0040    0000    0000    0020    0000
00046a0    0000    0000    0100    0000    4147    0524    7572    6e6e
00046b0    6e69    2067    6367    2063    3131    332e    312e    3220
00046c0    3230    3032    3234    0031    0020    0000    0000    0000
00046d0    0100    0000    4147    0524    6e61    6f6e    6962    206e
00046e0    6367    2063    3131    332e    312e    3220    3230    3032
00046f0    3234    0031    0019    0000    0000    0000    0100    0000
0004700    4147    0524    6c70    6775    6e69    6e20    6d61    3a65
0004710    6120    6e6e    626f    6e69    0000    0000    000b    0000
0004720    0000    0000    0100    0000    4147    472a    574f    6a00
0004730    0205    0000    0006    0000    0000    0000    0100    0000
0004740    4147    022a    0003    0000    000f    0000    0000    0000
0004750    0100    0000    4147    732b    6174    6b63    635f    616c
0004760    6873    0000    0013    0000    0000    0000    0100    0000
0004770    4147    632a    5f66    7270    746f    6365    6974    6e6f
0004780    0800    0000    000d    0000    0000    0000    0100    0000
0004790    4147    462a    524f    4954    5946    ff00    0000    0000
00047a0    0016    0000    0000    0000    0100    0000    4147    472b
00047b0    494c    4342    5858    415f    5353    5245    4954    4e4f
00047c0    0053    0000    0006    0000    0000    0000    0100    0000
00047d0    4147    072a    0003    0000    0005    0000    0000    0000
00047e0    0100    0000    4147    0821    0000    0000    0016    0000
00047f0    0000    0000    0100    0000    4147    6f2b    696d    5f74
0004800    7266    6d61    5f65    6f70    6e69    6574    0072    0000
0004810    0006    0000    0000    0000    0100    0000    4147    062a
0004820    0012    0000    0011    0000    0000    0000    0100    0000
0004830    4147    7321    6174    6b63    725f    6165    696c    6e67
0004840    0000    0000    000b    0000    0010    0000    0100    0000
0004850    4147    0124    7033    3031    3636    0000    1040    0040
0004860    0000    0000    1040    0040    0000    0000    0020    0000
0004870    0000    0000    0100    0000    4147    0524    7572    6e6e
0004880    6e69    2067    6367    2063    3131    332e    312e    3220
0004890    3230    3032    3234    0031    0020    0000    0000    0000
00048a0    0100    0000    4147    0524    6e61    6f6e    6962    206e
00048b0    6367    2063    3131    332e    312e    3220    3230    3032
00048c0    3234    0031    0019    0000    0000    0000    0100    0000
00048d0    4147    0524    6c70    6775    6e69    6e20    6d61    3a65
00048e0    6120    6e6e    626f    6e69    0000    0000    000b    0000
00048f0    0000    0000    0100    0000    4147    472a    574f    6a00
0004900    0205    0000    0006    0000    0000    0000    0100    0000
0004910    4147    022a    0003    0000    000f    0000    0000    0000
0004920    0100    0000    4147    732b    6174    6b63    635f    616c
0004930    6873    0000    0013    0000    0000    0000    0100    0000
0004940    4147    632a    5f66    7270    746f    6365    6974    6e6f
0004950    0800    0000    000d    0000    0000    0000    0100    0000
0004960    4147    462a    524f    4954    5946    ff00    0000    0000
0004970    0016    0000    0000    0000    0100    0000    4147    472b
0004980    494c    4342    5858    415f    5353    5245    4954    4e4f
0004990    0053    0000    0006    0000    0000    0000    0100    0000
00049a0    4147    072a    0003    0000    0005    0000    0000    0000
00049b0    0100    0000    4147    0821    0000    0000    0016    0000
00049c0    0000    0000    0100    0000    4147    6f2b    696d    5f74
00049d0    7266    6d61    5f65    6f70    6e69    6574    0072    0000
00049e0    0006    0000    0000    0000    0100    0000    4147    062a
00049f0    0012    0000    0011    0000    0000    0000    0100    0000
0004a00    4147    7321    6174    6b63    725f    6165    696c    6e67
0004a10    0000    0000    000b    0000    0010    0000    0100    0000
0004a20    4147    0124    7033    3031    3636    0000    1040    0040
0004a30    0000    0000    1040    0040    0000    0000    0020    0000
0004a40    0000    0000    0100    0000    4147    0524    7572    6e6e
0004a50    6e69    2067    6367    2063    3131    332e    312e    3220
0004a60    3230    3032    3234    0031    0020    0000    0000    0000
0004a70    0100    0000    4147    0524    6e61    6f6e    6962    206e
0004a80    6367    2063    3131    332e    312e    3220    3230    3032
0004a90    3234    0031    0019    0000    0000    0000    0100    0000
0004aa0    4147    0524    6c70    6775    6e69    6e20    6d61    3a65
0004ab0    6120    6e6e    626f    6e69    0000    0000    000b    0000
0004ac0    0000    0000    0100    0000    4147    472a    574f    6a00
0004ad0    0205    0000    0006    0000    0000    0000    0100    0000
0004ae0    4147    022a    0003    0000    000f    0000    0000    0000
0004af0    0100    0000    4147    732b    6174    6b63    635f    616c
0004b00    6873    0000    0013    0000    0000    0000    0100    0000
0004b10    4147    632a    5f66    7270    746f    6365    6974    6e6f
0004b20    0800    0000    000d    0000    0000    0000    0100    0000
0004b30    4147    462a    524f    4954    5946    ff00    0000    0000
0004b40    0016    0000    0000    0000    0100    0000    4147    472b
0004b50    494c    4342    5858    415f    5353    5245    4954    4e4f
0004b60    0053    0000    0006    0000    0000    0000    0100    0000
0004b70    4147    072a    0003    0000    0005    0000    0000    0000
0004b80    0100    0000    4147    0821    0000    0000    0016    0000
0004b90    0000    0000    0100    0000    4147    6f2b    696d    5f74
0004ba0    7266    6d61    5f65    6f70    6e69    6574    0072    0000
0004bb0    0006    0000    0000    0000    0100    0000    4147    062a
0004bc0    0012    0000    0011    0000    0000    0000    0100    0000
0004bd0    4147    7321    6174    6b63    725f    6165    696c    6e67
0004be0    0000    0000    0008    0000    0010    0000    0100    0000
0004bf0    4147    0124    6133    0031    1040    0040    0000    0000
0004c00    1066    0040    0000    0000    0008    0000    0010    0000
0004c10    0100    0000    4147    0124    6133    0031    1075    0040
0004c20    0000    0000    1075    0040    0000    0000    0008    0000
0004c30    0010    0000    0100    0000    4147    0124    6133    0031
0004c40    1000    0040    0000    0000    1016    0040    0000    0000
0004c50    0008    0000    0010    0000    0100    0000    4147    0124
0004c60    6133    0031    113c    0040    0000    0000    1144    0040
0004c70    0000    0000    0008    0000    0010    0000    0100    0000
0004c80    4147    0124    6133    0031    1080    0040    0000    0000
0004c90    1126    0040    0000    0000    0008    0000    0010    0000
0004ca0    0100    0000    4147    0124    6133    0031    113b    0040
0004cb0    0000    0000    113b    0040    0000    0000    0008    0000
0004cc0    0010    0000    0100    0000    4147    0124    6133    0031
0004cd0    113b    0040    0000    0000    113b    0040    0000    0000
0004ce0    0008    0000    0010    0000    0100    0000    4147    0124
0004cf0    6133    0031    1016    0040    0000    0000    101b    0040
0004d00    0000    0000    0008    0000    0010    0000    0100    0000
0004d10    4147    0124    6133    0031    1144    0040    0000    0000
0004d20    1149    0040    0000    0000    2e00    6873    7473    7472
0004d30    6261    2e00    6e69    6574    7072    2e00    6f6e    6574
0004d40    672e    756e    702e    6f72    6570    7472    0079    6e2e
0004d50    746f    2e65    6e67    2e75    7562    6c69    2d64    6469
0004d60    2e00    6f6e    6574    412e    4942    742d    6761    2e00
0004d70    6e67    2e75    6168    6873    2e00    7964    736e    6d79
0004d80    2e00    7964    736e    7274    2e00    6e67    2e75    6576
0004d90    7372    6f69    006e    672e    756e    762e    7265    6973
0004da0    6e6f    725f    2e00    6572    616c    642e    6e79    2e00
0004db0    6572    616c    702e    746c    2e00    6e69    7469    2e00
0004dc0    6574    7478    2e00    6966    696e    2e00    6f72    6164
0004dd0    6174    2e00    6865    665f    6172    656d    685f    7264
0004de0    2e00    6865    665f    6172    656d    2e00    6e69    7469
0004df0    615f    7272    7961    2e00    6966    696e    615f    7272
0004e00    7961    2e00    7964    616e    696d    0063    672e    746f
0004e10    2e00    6f67    2e74    6c70    0074    642e    7461    0061
0004e20    622e    7373    2e00    6f63    6d6d    6e65    0074    672e
0004e30    756e    622e    6975    646c    612e    7474    6972    7562
0004e40    6574    0073    0000    0000    0000    0000    0000    0000
0004e50    0000    0000    0000    0000    0000    0000    0000    0000
*
0004e80    0000    0000    0000    0000    000b    0000    0001    0000
0004e90    0002    0000    0000    0000    0318    0040    0000    0000
0004ea0    0318    0000    0000    0000    001c    0000    0000    0000
0004eb0    0000    0000    0000    0000    0001    0000    0000    0000
0004ec0    0000    0000    0000    0000    0013    0000    0007    0000
0004ed0    0002    0000    0000    0000    0338    0040    0000    0000
0004ee0    0338    0000    0000    0000    0040    0000    0000    0000
0004ef0    0000    0000    0000    0000    0008    0000    0000    0000
0004f00    0000    0000    0000    0000    0026    0000    0007    0000
0004f10    0002    0000    0000    0000    0378    0040    0000    0000
0004f20    0378    0000    0000    0000    0024    0000    0000    0000
0004f30    0000    0000    0000    0000    0004    0000    0000    0000
0004f40    0000    0000    0000    0000    0039    0000    0007    0000
0004f50    0002    0000    0000    0000    039c    0040    0000    0000
0004f60    039c    0000    0000    0000    0020    0000    0000    0000
0004f70    0000    0000    0000    0000    0004    0000    0000    0000
0004f80    0000    0000    0000    0000    0047    0000    fff6    6fff
0004f90    0002    0000    0000    0000    03c0    0040    0000    0000
0004fa0    03c0    0000    0000    0000    001c    0000    0000    0000
0004fb0    0006    0000    0000    0000    0008    0000    0000    0000
0004fc0    0000    0000    0000    0000    0051    0000    000b    0000
0004fd0    0002    0000    0000    0000    03e0    0040    0000    0000
0004fe0    03e0    0000    0000    0000    0060    0000    0000    0000
0004ff0    0007    0000    0001    0000    0008    0000    0000    0000
0005000    0018    0000    0000    0000    0059    0000    0003    0000
0005010    0002    0000    0000    0000    0440    0040    0000    0000
0005020    0440    0000    0000    0000    0048    0000    0000    0000
0005030    0000    0000    0000    0000    0001    0000    0000    0000
0005040    0000    0000    0000    0000    0061    0000    ffff    6fff
0005050    0002    0000    0000    0000    0488    0040    0000    0000
0005060    0488    0000    0000    0000    0008    0000    0000    0000
0005070    0006    0000    0000    0000    0002    0000    0000    0000
0005080    0002    0000    0000    0000    006e    0000    fffe    6fff
0005090    0002    0000    0000    0000    0490    0040    0000    0000
00050a0    0490    0000    0000    0000    0030    0000    0000    0000
00050b0    0007    0000    0001    0000    0008    0000    0000    0000
00050c0    0000    0000    0000    0000    007d    0000    0004    0000
00050d0    0002    0000    0000    0000    04c0    0040    0000    0000
00050e0    04c0    0000    0000    0000    0030    0000    0000    0000
00050f0    0006    0000    0000    0000    0008    0000    0000    0000
0005100    0018    0000    0000    0000    0087    0000    0004    0000
0005110    0042    0000    0000    0000    04f0    0040    0000    0000
0005120    04f0    0000    0000    0000    0018    0000    0000    0000
0005130    0006    0000    0017    0000    0008    0000    0000    0000
0005140    0018    0000    0000    0000    0091    0000    0001    0000
0005150    0006    0000    0000    0000    1000    0040    0000    0000
0005160    1000    0000    0000    0000    001b    0000    0000    0000
0005170    0000    0000    0000    0000    0004    0000    0000    0000
0005180    0000    0000    0000    0000    008c    0000    0001    0000
0005190    0006    0000    0000    0000    1020    0040    0000    0000
00051a0    1020    0000    0000    0000    0020    0000    0000    0000
00051b0    0000    0000    0000    0000    0010    0000    0000    0000
00051c0    0010    0000    0000    0000    0097    0000    0001    0000
00051d0    0006    0000    0000    0000    1040    0040    0000    0000
00051e0    1040    0000    0000    0000    00fb    0000    0000    0000
00051f0    0000    0000    0000    0000    0010    0000    0000    0000
0005200    0000    0000    0000    0000    009d    0000    0001    0000
0005210    0006    0000    0000    0000    113c    0040    0000    0000
0005220    113c    0000    0000    0000    000d    0000    0000    0000
0005230    0000    0000    0000    0000    0004    0000    0000    0000
0005240    0000    0000    0000    0000    00a3    0000    0001    0000
0005250    0002    0000    0000    0000    2000    0040    0000    0000
0005260    2000    0000    0000    0000    001c    0000    0000    0000
0005270    0000    0000    0000    0000    0008    0000    0000    0000
0005280    0000    0000    0000    0000    00ab    0000    0001    0000
0005290    0002    0000    0000    0000    201c    0040    0000    0000
00052a0    201c    0000    0000    0000    002c    0000    0000    0000
00052b0    0000    0000    0000    0000    0004    0000    0000    0000
00052c0    0000    0000    0000    0000    00b9    0000    0001    0000
00052d0    0002    0000    0000    0000    2048    0040    0000    0000
00052e0    2048    0000    0000    0000    008c    0000    0000    0000
00052f0    0000    0000    0000    0000    0008    0000    0000    0000
0005300    0000    0000    0000    0000    00c3    0000    000e    0000
0005310    0003    0000    0000    0000    3e10    0040    0000    0000
0005320    2e10    0000    0000    0000    0008    0000    0000    0000
0005330    0000    0000    0000    0000    0008    0000    0000    0000
0005340    0008    0000    0000    0000    00cf    0000    000f    0000
0005350    0003    0000    0000    0000    3e18    0040    0000    0000
0005360    2e18    0000    0000    0000    0008    0000    0000    0000
0005370    0000    0000    0000    0000    0008    0000    0000    0000
0005380    0008    0000    0000    0000    00db    0000    0006    0000
0005390    0003    0000    0000    0000    3e20    0040    0000    0000
00053a0    2e20    0000    0000    0000    01d0    0000    0000    0000
00053b0    0007    0000    0000    0000    0008    0000    0000    0000
00053c0    0010    0000    0000    0000    00e4    0000    0001    0000
00053d0    0003    0000    0000    0000    3ff0    0040    0000    0000
00053e0    2ff0    0000    0000    0000    0010    0000    0000    0000
00053f0    0000    0000    0000    0000    0008    0000    0000    0000
0005400    0008    0000    0000    0000    00e9    0000    0001    0000
0005410    0003    0000    0000    0000    4000    0040    0000    0000
0005420    3000    0000    0000    0000    0020    0000    0000    0000
0005430    0000    0000    0000    0000    0008    0000    0000    0000
0005440    0008    0000    0000    0000    00f2    0000    0001    0000
0005450    0003    0000    0000    0000    4020    0040    0000    0000
0005460    3020    0000    0000    0000    0004    0000    0000    0000
0005470    0000    0000    0000    0000    0001    0000    0000    0000
0005480    0000    0000    0000    0000    00f8    0000    0008    0000
0005490    0003    0000    0000    0000    4024    0040    0000    0000
00054a0    3024    0000    0000    0000    0004    0000    0000    0000
00054b0    0000    0000    0000    0000    0001    0000    0000    0000
00054c0    0000    0000    0000    0000    00fd    0000    0001    0000
00054d0    0030    0000    0000    0000    0000    0000    0000    0000
00054e0    3024    0000    0000    0000    002e    0000    0000    0000
00054f0    0000    0000    0000    0000    0001    0000    0000    0000
0005500    0001    0000    0000    0000    0106    0000    0007    0000
0005510    0000    0000    0000    0000    6028    0040    0000    0000
0005520    3054    0000    0000    0000    1cd4    0000    0000    0000
0005530    0000    0000    0000    0000    0004    0000    0000    0000
0005540    0000    0000    0000    0000    0001    0000    0003    0000
0005550    0000    0000    0000    0000    0000    0000    0000    0000
0005560    4d28    0000    0000    0000    011c    0000    0000    0000
0005570    0000    0000    0000    0000    0001    0000    0000    0000
0005580    0000    0000    0000    0000                                
0005588
